…
The inversion of Aq, Me, and Lm is handled automatically because higher
values of these ratios indicate worse bank performance.

## Examples

``` r
# Using the built-in example data
base_year <- camel_2015
current_year <- camel_2022

result <- camel_index(base_year, current_year)
#> ℹ Using 3 factors (Kaiser criterion suggests 2 for base year).
result$index_table
#> # A tibble: 21 × 3
#>    bank      I_mw      PD
#>    <chr>    <dbl>   <dbl>
#>  1 Absa    116.    16.1  
#>  2 AB      327.   227.   
#>  3 ADB     154.    54.1  
#>  4 BA       99.6   -0.420
#>  5 CB        3.72 -96.3  
#>  6 Ecobank 549.   449.   
#>  7 FBN     171.    70.9  
#>  8 FB      151.    50.6  
#>  9 FAB     204.   104.   
#> 10 FNB     144.    43.7  
#> # ℹ 11 more rows
…
# Using matrices with explicit bank names
base_mat <- as.matrix(camel_2015[, -1])
curr_mat <- as.matrix(camel_2022[, -1])
banks <- camel_2015$Bank

result2 <- camel_index(base_mat, curr_mat, bank_names = banks)
#> ℹ Using 3 factors (Kaiser criterion suggests 2 for base year).
result2$index_table
#> # A tibble: 21 × 3
#>    bank      I_mw      PD
#>    <chr>    <dbl>   <dbl>
#>  1 Absa    116.    16.1  
#>  2 AB      327.   227.   
#>  3 ADB     154.    54.1  
#>  4 BA       99.6   -0.420
#>  5 CB        3.72 -96.3  
#>  6 Ecobank 549.   449.   
#>  7 FBN     171.    70.9  
#>  8 FB      151.    50.6  
#>  9 FAB     204.   104.   
#> 10 FNB     144.    43.7  
#> # ℹ 11 more rows
```
