…
result <- camel_index(base_year, current_year)
#> ℹ Using 3 factors (Kaiser criterion suggests 2 for base year).
result
#> 
#> ── CAMEL Index Results ─────────────────────────────────────────────────────────
#> Base year factor analysis: 2 eigenvalue(s) > 1
#> Current year factor analysis: 2 eigenvalue(s) > 1
#> Factors extracted: 3
#> 
#> ── Index Table ──
#> 
#> # A tibble: 21 × 3
#>    bank      I_mw      PD
#>    <chr>    <dbl>   <dbl>
#>  1 Absa    116.    16.1  
#>  2 AB      327.   227.   
#>  3 ADB     154.    54.1  
#>  4 BA       99.6   -0.420
#>  5 CB        3.72 -96.3  
#>  6 Ecobank 549.   449.   
#>  7 FBN     171.    70.9  
#>  8 FB      151.    50.6  
#>  9 FAB     204.   104.   
#> 10 FNB     144.    43.7  
#> # ℹ 11 more rows
…
